sfnetworks: Tidy Geospatial Networks in R
…
## <span style="color:#ffa500">Tidy</span> <span style="color:#b3b3b3">Geospatial Networks</span> <span style="color:#ffa500">in R</span>

.left[
.pull-left-70[

```r
library(tidyverse)
library(sfnetworks)
roxel %>%
  as_tibble() %>%
  select(name, type)
```

```
# A tibble: 851 x 2
  name                  type       
  <chr>                 <fct>      
1 Havixbecker Strasse   residential
2 Pienersallee          secondary  
3 Schulte-Bernd-Strasse residential
4 <NA>                  path       
5 Welsingheide          residential
# ... with 846 more rows
```
…
.left[
.pull-left-70[

```r
library(sf)
roxel
```

```
Simple feature collection with 851 features and 2 fields
Geometry type: LINESTRING
Dimension:     XY
Bounding box:  xmin: 7.523 ymin: 51.94 xmax: 7.547 ymax: 51.96
Geodetic CRS:  WGS 84
# A tibble: 851 x 3
  name                  type                                  geometry
* <chr>                 <fct>                         <LINESTRING [°]>
1 Havixbecker Strasse   residential         (7.534 51.96, 7.533 51.96)
2 Pienersallee          secondary   (7.532 51.95, 7.532 51.95, 7.532 ~
3 Schulte-Bernd-Strasse residential (7.533 51.95, 7.533 51.95, 7.533 ~
4 <NA>                  path        (7.54 51.94, 7.54 51.94, 7.539 51~
5 Welsingheide          residential         (7.538 51.95, 7.538 51.95)
# ... with 846 more rows
```
…
```r
roxel
```
]

.pull-right-60[

```
Simple feature collection with 851 features and 2 fields
Geometry type: LINESTRING
Dimension:     XY
Bounding box:  xmin: 7.523 ymin: 51.94 xmax: 7.547 ymax: 51.96
Geodetic CRS:  WGS 84
# A tibble: 851 x 3
  name                  type                                  geometry
* <chr>                 <fct>                         <LINESTRING [°]>
1 Havixbecker Strasse   residential         (7.534 51.96, 7.533 51.96)
2 Pienersallee          secondary   (7.532 51.95, 7.532 51.95, 7.532 ~
3 Schulte-Bernd-Strasse residential (7.533 51.95, 7.533 51.95, 7.533 ~
4 <NA>                  path        (7.54 51.94, 7.54 51.94, 7.539 51~
5 Welsingheide          residential         (7.538 51.95, 7.538 51.95)
# ... with 846 more rows
```
…
.pull-right-60[

```
Simple feature collection with 701 features and 0 fields
Geometry type: POINT
Dimension:     XY
Bounding box:  xmin: 7.523 ymin: 51.94 xmax: 7.547 ymax: 51.96
Geodetic CRS:  WGS 84
# A tibble: 701 x 1
       geometry
    <POINT [°]>
1 (7.534 51.96)
2 (7.533 51.96)
3 (7.532 51.95)
4 (7.532 51.95)
5 (7.533 51.95)
# ... with 696 more rows
```
…
